%YAML 1.1
%TAG !u! tag:unity3d.com,2011:
--- !u!114 &11400000
MonoBehaviour:
  m_ObjectHideFlags: 0
  m_PrefabParentObject: {fileID: 0}
  m_PrefabInternal: {fileID: 0}
  m_GameObject: {fileID: 0}
  m_Enabled: 1
  m_EditorHideFlags: 0
  m_Script: {fileID: 11500000, guid: 4f3f14e61e017f344a90f3a444786aba, type: 3}
  m_Name: BoxedFish
  m_EditorClassIdentifier: 
  sprite: {fileID: 21300000, guid: 4992a7a9813007a4c89cef1593e33f82, type: 3}
  inventorySprite: {fileID: 21300014, guid: 4992a7a9813007a4c89cef1593e33f82, type: 3}
  rationSprite: {fileID: 21300000, guid: 1be1b603839d74546a689ed25802787d, type: 3}
  rationInventorySprite: {fileID: 21300014, guid: 1be1b603839d74546a689ed25802787d,
    type: 3}
  specialSprite: {fileID: 21300020, guid: 4992a7a9813007a4c89cef1593e33f82, type: 3}
  specialInventorySprite: {fileID: 21300020, guid: 4992a7a9813007a4c89cef1593e33f82,
    type: 3}
  vitality: 0
  energy: 25
  hunger: 30
  thrist: 0
  sleep: 0
  spVitality: 0
  spEnergy: 30
  spHunger: 35
  spThrist: 0
  spSleep: 0
  poisonProb: 0.4
  poisonTime: 8
  antidoteSprite: {fileID: 21300008, guid: f1e694269cc54a948a7fe1c39a47b907, type: 3}
  antidoteEfectiveness: 2
  maxSpread: 0
  playerTypeInventoryActions: 01000000030000000400000002000000
  timer: 20
  isUsable: 1
  description: 'Raw Fish:

    Energy: +25

    Hunger: +30

    Don''t eat, could get sick'
  rationDescription: 'Raw Fish (Ration):

    Energy: +12

    Hunger: +15

    Don''t eat, could get sick'
  specialDescription: 'Cooked Fish:

    Energy: +30

    Hunger: +35'
  antidoteDescription: 'Fish Fat Antidote:

    Efectiveness: 20%'
