%YAML 1.1
%TAG !u! tag:unity3d.com,2011:
--- !u!114 &11400000
MonoBehaviour:
  m_ObjectHideFlags: 0
  m_PrefabParentObject: {fileID: 0}
  m_PrefabInternal: {fileID: 0}
  m_GameObject: {fileID: 0}
  m_Enabled: 1
  m_EditorHideFlags: 0
  m_Script: {fileID: 11500000, guid: 4f3f14e61e017f344a90f3a444786aba, type: 3}
  m_Name: Herb
  m_EditorClassIdentifier: 
  sprite: {fileID: 21300004, guid: c54ca3943c7bb1e4d8f90ecf79b94e83, type: 3}
  inventorySprite: {fileID: 21300006, guid: c54ca3943c7bb1e4d8f90ecf79b94e83, type: 3}
  rationSprite: {fileID: 21300004, guid: f5ee5e336aa2e2647a5d29e595e3af76, type: 3}
  rationInventorySprite: {fileID: 21300006, guid: f5ee5e336aa2e2647a5d29e595e3af76,
    type: 3}
  specialSprite: {fileID: 21300002, guid: 47b36e3ae94cfb34384935db76cb091f, type: 3}
  specialInventorySprite: {fileID: 21300002, guid: 47b36e3ae94cfb34384935db76cb091f,
    type: 3}
  vitality: 0
  energy: 0
  hunger: 15
  thrist: 15
  sleep: 0
  spVitality: 0
  spEnergy: 10
  spHunger: 25
  spThrist: 25
  spSleep: 0
  poisonProb: 0
  poisonTime: 0
  antidoteSprite: {fileID: 21300010, guid: f1e694269cc54a948a7fe1c39a47b907, type: 3}
  antidoteEfectiveness: 4
  maxSpread: 2
  playerTypeInventoryActions: 0000000003000000040000000100000002000000
  timer: 50
  isUsable: 1
  description: 'Herb:

    Hunger: +15

    Thirst: +15'
  rationDescription: 'Herb (Ration):

    Hunger: +7

    Thirst: +7'
  specialDescription: 'Soup:

    Energy: +10

    Hunger: +25

    Thirst: +25'
  antidoteDescription: 'Herbal Antidote:

    Efectiveness: 40%'
