%YAML 1.1
%TAG !u! tag:unity3d.com,2011:
--- !u!221 &22100000
AnimatorOverrideController:
  m_ObjectHideFlags: 0
  m_PrefabParentObject: {fileID: 0}
  m_PrefabInternal: {fileID: 0}
  m_Name: Mecanico
  m_Controller: {fileID: 9100000, guid: 82be00ee3f3a3af4a839501f3c66bf9f, type: 2}
  m_Clips:
  - m_OriginalClip: {fileID: 7400000, guid: b6cd51ed856df554b8bcd96b3da35ca8, type: 2}
    m_OverrideClip: {fileID: 7400000, guid: 013f2e635abec7949bf627928ea02bfe, type: 2}
  - m_OriginalClip: {fileID: 7400000, guid: 8ffb3aaabb64f104aaa7a46d7b114ce2, type: 2}
    m_OverrideClip: {fileID: 7400000, guid: 646c75a6d9134eb40bb09776d22c2850, type: 2}
  - m_OriginalClip: {fileID: 7400000, guid: afc7f65f894f44842a10b3b7365e742b, type: 2}
    m_OverrideClip: {fileID: 7400000, guid: a8eab625c54ac0e48b8c66a5ccc35f37, type: 2}
  - m_OriginalClip: {fileID: 7400000, guid: 0fa49b722cdc77b438850f361ea29d05, type: 2}
    m_OverrideClip: {fileID: 7400000, guid: 1da7b5470c7e1724eb9600ededf759e8, type: 2}
