%YAML 1.1
%TAG !u! tag:unity3d.com,2011:
--- !u!114 &11400000
MonoBehaviour:
  m_ObjectHideFlags: 0
  m_PrefabParentObject: {fileID: 0}
  m_PrefabInternal: {fileID: 0}
  m_GameObject: {fileID: 0}
  m_Enabled: 1
  m_EditorHideFlags: 0
  m_Script: {fileID: 11500000, guid: 1e20cc4ce45c4094885a60b5000bbd7b, type: 3}
  m_Name: SpaceshipParts
  m_EditorClassIdentifier: 
  description: 'Spaceship Parts:

    Some parts of the spaceship got lost in the crater. If you are capable of finding
    and fixing them all, then the spaceship will be capable of getting out of the
    crater by itself.'
  sprite: {fileID: 21300018, guid: eaaa0ed6987c9c24bb443b1348e65bb6, type: 3}
