%YAML 1.1
%TAG !u! tag:unity3d.com,2011:
--- !u!114 &11400000
MonoBehaviour:
  m_ObjectHideFlags: 0
  m_PrefabParentObject: {fileID: 0}
  m_PrefabInternal: {fileID: 0}
  m_GameObject: {fileID: 0}
  m_Enabled: 1
  m_EditorHideFlags: 0
  m_Script: {fileID: 11500000, guid: 4f3f14e61e017f344a90f3a444786aba, type: 3}
  m_Name: ExampleStar1
  m_EditorClassIdentifier: 
  sprite: {fileID: 21300000, guid: b20118ffe1da3054e8ea958da32ed7b7, type: 3}
  inventorySprite: {fileID: 21300000, guid: b20118ffe1da3054e8ea958da32ed7b7, type: 3}
  vitality: 0
  energy: 10
  hunger: 5
  thrist: 0
  sleep: 0
  maxSpread: 5
  playerTypeInventoryActions: 
  inventoryActionNames: []
  inventoryActions:
  - {fileID: 0}
  playerTypeInteractableActions: 
  interactableActions: []
