%YAML 1.1
%TAG !u! tag:unity3d.com,2011:
--- !u!114 &11400000
MonoBehaviour:
  m_ObjectHideFlags: 0
  m_PrefabParentObject: {fileID: 0}
  m_PrefabInternal: {fileID: 0}
  m_GameObject: {fileID: 0}
  m_Enabled: 1
  m_EditorHideFlags: 0
  m_Script: {fileID: 11500000, guid: 4f3f14e61e017f344a90f3a444786aba, type: 3}
  m_Name: SOSSender
  m_EditorClassIdentifier: 
  sprite: {fileID: 21300022, guid: eaaa0ed6987c9c24bb443b1348e65bb6, type: 3}
  inventorySprite: {fileID: 21300002, guid: 0557528a225120d4083b4ac434730798, type: 3}
  rationSprite: {fileID: 0}
  rationInventorySprite: {fileID: 0}
  specialSprite: {fileID: 21300022, guid: eaaa0ed6987c9c24bb443b1348e65bb6, type: 3}
  specialInventorySprite: {fileID: 21300008, guid: eaaa0ed6987c9c24bb443b1348e65bb6,
    type: 3}
  vitality: 0
  energy: 0
  hunger: 0
  thrist: 0
  sleep: 0
  spVitality: 0
  spEnergy: 0
  spHunger: 0
  spThrist: 0
  spSleep: 0
  poisonProb: 0
  poisonTime: 0
  antidoteSprite: {fileID: 0}
  antidoteEfectiveness: 0
  maxSpread: 0
  playerTypeInventoryActions: 0300000005000000
  timer: 50
  isUsable: 0
  description: SOS Message Sender (Broken)
  rationDescription: 
  specialDescription: SOS Message Sender (Fixed)
  antidoteDescription: 
