%YAML 1.1
%TAG !u! tag:unity3d.com,2011:
--- !u!1045 &1
EditorBuildSettings:
  m_ObjectHideFlags: 0
  serializedVersion: 2
  m_Scenes:
  - enabled: 1
    path: Assets/Scenes/IntroMenu.unity
  - enabled: 1
    path: Assets/Scenes/Intro.unity
  - enabled: 1
    path: Assets/Scenes/Intro2.unity
  - enabled: 1
    path: Assets/Scenes/MainGame.unity
  - enabled: 1
    path: Assets/Scenes/GoodEnding1.unity
  - enabled: 1
    path: Assets/Scenes/GoodEnding2.unity
  - enabled: 1
    path: Assets/Scenes/BadEnding.unity
  - enabled: 1
    path: Assets/Scenes/Manual.unity
  - enabled: 1
    path: Assets/Scenes/Credits.unity
