%YAML 1.1
%TAG !u! tag:unity3d.com,2011:
--- !u!114 &11400000
MonoBehaviour:
  m_ObjectHideFlags: 0
  m_PrefabParentObject: {fileID: 0}
  m_PrefabInternal: {fileID: 0}
  m_GameObject: {fileID: 0}
  m_Enabled: 1
  m_EditorHideFlags: 0
  m_Script: {fileID: 11500000, guid: 1e20cc4ce45c4094885a60b5000bbd7b, type: 3}
  m_Name: Student
  m_EditorClassIdentifier: 
  description: 'Student:

    A prodigy student with knoledge about almost anything.


    Analize:

    The student is capable of analizing any item and give a small description of it.'
  sprite: {fileID: 21300000, guid: b55b3d0737fe2074d8770961dc4c1687, type: 3}
