%YAML 1.1
%TAG !u! tag:unity3d.com,2011:
--- !u!221 &22100000
AnimatorOverrideController:
  m_ObjectHideFlags: 0
  m_PrefabParentObject: {fileID: 0}
  m_PrefabInternal: {fileID: 0}
  m_Name: Explorador
  m_Controller: {fileID: 9100000, guid: 82be00ee3f3a3af4a839501f3c66bf9f, type: 2}
  m_Clips:
  - m_OriginalClip: {fileID: 7400000, guid: b6cd51ed856df554b8bcd96b3da35ca8, type: 2}
    m_OverrideClip: {fileID: 7400000, guid: 55adf701cc436a046904725df7759c03, type: 2}
  - m_OriginalClip: {fileID: 7400000, guid: 8ffb3aaabb64f104aaa7a46d7b114ce2, type: 2}
    m_OverrideClip: {fileID: 7400000, guid: 66fb5291fa6c9c440adc6c90d34db1c6, type: 2}
  - m_OriginalClip: {fileID: 7400000, guid: afc7f65f894f44842a10b3b7365e742b, type: 2}
    m_OverrideClip: {fileID: 7400000, guid: 4b452ff65bcf8cb45a1c8bfd37368c2e, type: 2}
  - m_OriginalClip: {fileID: 7400000, guid: 0fa49b722cdc77b438850f361ea29d05, type: 2}
    m_OverrideClip: {fileID: 7400000, guid: 1df3b6c2c406ec246b3f784f3731fb14, type: 2}
