%YAML 1.1
%TAG !u! tag:unity3d.com,2011:
--- !u!114 &11400000
MonoBehaviour:
  m_ObjectHideFlags: 0
  m_PrefabParentObject: {fileID: 0}
  m_PrefabInternal: {fileID: 0}
  m_GameObject: {fileID: 0}
  m_Enabled: 1
  m_EditorHideFlags: 0
  m_Script: {fileID: 11500000, guid: cf99517eb151e9540860ac4aa89ec3b0, type: 3}
  m_Name: Cocinero
  m_EditorClassIdentifier: 
  uiName: Chef
  type: 1
  vitality: 75
  vitalityVariation: 0
  energy: 80
  energyVariation: 0
  hunger: 75
  hungerVariation: 0
  thrist: 75
  thristVariation: 0
  sleep: 30
  sleepVariation: 3
  habilityConsumption: 3
  timerFactor: 2
  animator: {fileID: 22100000, guid: edebb679378b99742a60d29616a5c2da, type: 2}
  specialActionName: 2. Cook
  specialActionID: 3
