%YAML 1.1
%TAG !u! tag:unity3d.com,2011:
--- !u!114 &11400000
MonoBehaviour:
  m_ObjectHideFlags: 0
  m_PrefabParentObject: {fileID: 0}
  m_PrefabInternal: {fileID: 0}
  m_GameObject: {fileID: 0}
  m_Enabled: 1
  m_EditorHideFlags: 0
  m_Script: {fileID: 11500000, guid: cf99517eb151e9540860ac4aa89ec3b0, type: 3}
  m_Name: Passive Consuming Time
  m_EditorClassIdentifier: 
  uiName: Passive
  type: 6
  vitality: 0
  vitalityVariation: 0
  energy: 17
  energyVariation: 0
  hunger: 20
  hungerVariation: 0
  thrist: 15
  thristVariation: 0
  sleep: 0
  sleepVariation: 0
  habilityConsumption: 0
  timerFactor: 0
  animator: {fileID: 0}
  specialActionName: 
  specialActionID: 0
