%YAML 1.1
%TAG !u! tag:unity3d.com,2011:
--- !u!221 &22100000
AnimatorOverrideController:
  m_ObjectHideFlags: 0
  m_PrefabParentObject: {fileID: 0}
  m_PrefabInternal: {fileID: 0}
  m_Name: Medica
  m_Controller: {fileID: 9100000, guid: 82be00ee3f3a3af4a839501f3c66bf9f, type: 2}
  m_Clips:
  - m_OriginalClip: {fileID: 7400000, guid: b6cd51ed856df554b8bcd96b3da35ca8, type: 2}
    m_OverrideClip: {fileID: 7400000, guid: b8d42822df3c2d04694dd1e31c5656a2, type: 2}
  - m_OriginalClip: {fileID: 7400000, guid: 8ffb3aaabb64f104aaa7a46d7b114ce2, type: 2}
    m_OverrideClip: {fileID: 7400000, guid: 20e9cc4753df02345a8745458be4411f, type: 2}
  - m_OriginalClip: {fileID: 7400000, guid: afc7f65f894f44842a10b3b7365e742b, type: 2}
    m_OverrideClip: {fileID: 7400000, guid: 8bfc44f4653630549bd89569ceedd5c0, type: 2}
  - m_OriginalClip: {fileID: 7400000, guid: 0fa49b722cdc77b438850f361ea29d05, type: 2}
    m_OverrideClip: {fileID: 7400000, guid: d828563cf521cd541a25f0a531ac708e, type: 2}
